<?xml version="1.0" encoding="UTF-8" standalone="no"?>
<!-- Created with Inkscape (http://www.inkscape.org/) -->

<svg
   xmlns:dc="http://purl.org/dc/elements/1.1/"
   xmlns:cc="http://creativecommons.org/ns#"
   xmlns:rdf="http://www.w3.org/1999/02/22-rdf-syntax-ns#"
   xmlns:svg="http://www.w3.org/2000/svg"
   xmlns="http://www.w3.org/2000/svg"
   xmlns:xlink="http://www.w3.org/1999/xlink"
   xmlns:sodipodi="http://sodipodi.sourceforge.net/DTD/sodipodi-0.dtd"
   xmlns:inkscape="http://www.inkscape.org/namespaces/inkscape"
   width="723.0094mm"
   height="998.52753mm"
   viewBox="0 0 723.00942 998.5275"
   version="1.1"
   id="svg8"
   inkscape:version="0.92.3 (2405546, 2018-03-11)"
   sodipodi:docname="object_embedding.svg">
  <defs
     id="defs2">
    <pattern
       inkscape:collect="always"
       xlink:href="#pattern2583"
       id="pattern2885"
       patternTransform="matrix(8.347265,0,0,14.703188,94.614486,-624.169)" />
    <pattern
       inkscape:collect="always"
       xlink:href="#pattern2683"
       id="pattern2883"
       patternTransform="matrix(8.347265,0,0,14.703188,94.614486,-285.50212)" />
    <pattern
       inkscape:collect="always"
       xlink:href="#pattern2683"
       id="pattern2783"
       patternTransform="matrix(8.347265,0,0,14.703188,-318.13566,-624.169)" />
    <pattern
       inkscape:collect="always"
       xlink:href="#pattern2583"
       id="pattern2683"
       patternTransform="matrix(8.347265,0,0,14.703188,110.48949,-274.91878)" />
    <pattern
       inkscape:collect="always"
       xlink:href="#pattern2571"
       id="pattern2583"
       patternTransform="matrix(8.347265,0,0,14.703188,110.48949,-613.58566)" />
    <pattern
       inkscape:collect="always"
       xlink:href="#pattern2571"
       id="pattern2581"
       patternTransform="matrix(8.3486381,0,0,12.84499,216.9354,-585.35818)" />
    <pattern
       inkscape:collect="always"
       xlink:href="#pattern2564"
       id="pattern2571"
       patternTransform="matrix(8.347265,0,0,14.703188,25.822818,-624.169)" />
    <pattern
       inkscape:collect="always"
       xlink:href="#pattern2522"
       id="pattern2564"
       patternTransform="matrix(8.3514768,0,0,9.828457,-58.727878,-361.7493)" />
    <pattern
       inkscape:collect="always"
       xlink:href="#Strips1_1white"
       id="pattern2522"
       patternTransform="matrix(8.3514768,0,0,9.828457,-11.102872,-515.20767)" />
    <pattern
       inkscape:isstock="true"
       inkscape:stockid="Stripes 1:1 white"
       id="Strips1_1white"
       patternTransform="translate(0,0) scale(10,10)"
       height="1"
       width="2"
       patternUnits="userSpaceOnUse"
       inkscape:collect="always">
      <rect
         id="rect1795"
         height="2"
         width="1"
         y="-0.5"
         x="0"
         style="fill:white;stroke:none" />
    </pattern>
  </defs>
  <sodipodi:namedview
     id="base"
     pagecolor="#ffffff"
     bordercolor="#666666"
     borderopacity="1.0"
     inkscape:pageopacity="0.0"
     inkscape:pageshadow="2"
     inkscape:zoom="0.1179638"
     inkscape:cx="2101.7389"
     inkscape:cy="1991.5509"
     inkscape:document-units="mm"
     inkscape:current-layer="layer1"
     showgrid="false"
     inkscape:snap-global="false"
     showguides="false"
     fit-margin-top="0"
     fit-margin-left="0"
     fit-margin-right="0"
     fit-margin-bottom="0"
     inkscape:window-width="1362"
     inkscape:window-height="744"
     inkscape:window-x="0"
     inkscape:window-y="22"
     inkscape:window-maximized="0" />
  <metadata
     id="metadata5">
    <rdf:RDF>
      <cc:Work
         rdf:about="">
        <dc:format>image/svg+xml</dc:format>
        <dc:type
           rdf:resource="http://purl.org/dc/dcmitype/StillImage" />
        <dc:title></dc:title>
      </cc:Work>
    </rdf:RDF>
  </metadata>
  <g
     inkscape:label="Layer 1"
     inkscape:groupmode="layer"
     id="layer1"
     transform="translate(358.77466,91.019103)">
    <rect
       style="opacity:0.43700005;fill:#fce94f;fill-opacity:1;fill-rule:nonzero;stroke:#7a0000;stroke-width:0.22454652;stroke-miterlimit:4;stroke-dasharray:none;stroke-dashoffset:0;stroke-opacity:1"
       id="rect833"
       width="722.78485"
       height="998.30298"
       x="-358.66238"
       y="-90.90683" />
    <text
       xml:space="preserve"
       style="font-style:normal;font-variant:normal;font-weight:normal;font-stretch:normal;font-size:39.10488892px;line-height:1.25;font-family:sans-serif;-inkscape-font-specification:sans-serif;letter-spacing:0px;word-spacing:0px;fill:#ef2929;fill-opacity:1;stroke:none;stroke-width:0.73321664"
       x="-316.79602"
       y="-21.500034"
       id="text837"><tspan
         sodipodi:role="line"
         id="tspan835"
         x="-316.79602"
         y="-21.500034"
         style="fill:#ef2929;stroke-width:0.73321664">Island</tspan></text>
    <rect
       style="opacity:1;fill:#8ae234;fill-opacity:1;fill-rule:nonzero;stroke:#7a0000;stroke-width:0.41690004;stroke-miterlimit:4;stroke-dasharray:none;stroke-dashoffset:0;stroke-opacity:1"
       id="rect847"
       width="316.52231"
       height="397.0806"
       x="-323.39725"
       y="80.94799" />
    <text
       xml:space="preserve"
       style="font-style:normal;font-variant:normal;font-weight:normal;font-stretch:normal;font-size:14.11111069px;line-height:1.25;font-family:sans-serif;-inkscape-font-specification:sans-serif;letter-spacing:0px;word-spacing:0px;fill:#5c3566;fill-opacity:1;stroke:none;stroke-width:0.26458332"
       x="-315.23218"
       y="102.72021"
       id="text859"><tspan
         sodipodi:role="line"
         id="tspan857"
         x="-315.23218"
         y="102.72021"
         style="fill:#5c3566;stroke-width:0.26458332">Issue</tspan></text>
    <g
       id="g884"
       transform="translate(-46.661794,239.61467)">
      <rect
         y="159.38406"
         x="-112.66953"
         height="24.255711"
         width="97.921478"
         id="rect878"
         style="opacity:1;fill:#fcaf3e;fill-opacity:1;fill-rule:nonzero;stroke:#7a0000;stroke-width:0.05091554;stroke-miterlimit:4;stroke-dasharray:none;stroke-dashoffset:0;stroke-opacity:1" />
      <text
         id="text882"
         y="171.99657"
         x="-107.32667"
         style="font-style:normal;font-variant:normal;font-weight:normal;font-stretch:normal;font-size:9.04667377px;line-height:1.25;font-family:sans-serif;-inkscape-font-specification:sans-serif;letter-spacing:0px;word-spacing:0px;fill:#000000;fill-opacity:1;stroke:none;stroke-width:0.16962513"
         xml:space="preserve"><tspan
           style="stroke-width:0.16962513"
           y="171.99657"
           x="-107.32667"
           id="tspan880"
           sodipodi:role="line">Comment</tspan></text>
    </g>
    <g
       id="g868"
       transform="translate(-46.661794,194.19229)">
      <rect
         y="159.38406"
         x="-112.66953"
         height="24.255711"
         width="97.921478"
         id="rect849"
         style="opacity:1;fill:#fcaf3e;fill-opacity:1;fill-rule:nonzero;stroke:#7a0000;stroke-width:0.05091554;stroke-miterlimit:4;stroke-dasharray:none;stroke-dashoffset:0;stroke-opacity:1" />
      <text
         id="text863"
         y="171.99657"
         x="-107.32667"
         style="font-style:normal;font-variant:normal;font-weight:normal;font-stretch:normal;font-size:9.04667377px;line-height:1.25;font-family:sans-serif;-inkscape-font-specification:sans-serif;letter-spacing:0px;word-spacing:0px;fill:#000000;fill-opacity:1;stroke:none;stroke-width:0.16962513"
         xml:space="preserve"><tspan
           style="stroke-width:0.16962513"
           y="171.99657"
           x="-107.32667"
           id="tspan861"
           sodipodi:role="line">Comment</tspan></text>
    </g>
    <g
       transform="translate(-46.661785,218.448)"
       id="g876">
      <rect
         style="opacity:1;fill:#fcaf3e;fill-opacity:1;fill-rule:nonzero;stroke:#7a0000;stroke-width:0.05091554;stroke-miterlimit:4;stroke-dasharray:none;stroke-dashoffset:0;stroke-opacity:1"
         id="rect870"
         width="97.921478"
         height="24.255711"
         x="-112.66953"
         y="159.38406" />
      <text
         xml:space="preserve"
         style="font-style:normal;font-variant:normal;font-weight:normal;font-stretch:normal;font-size:9.04667377px;line-height:1.25;font-family:sans-serif;-inkscape-font-specification:sans-serif;letter-spacing:0px;word-spacing:0px;fill:#000000;fill-opacity:1;stroke:none;stroke-width:0.16962513"
         x="-107.32667"
         y="171.99657"
         id="text874"><tspan
           sodipodi:role="line"
           id="tspan872"
           x="-107.32667"
           y="171.99657"
           style="stroke-width:0.16962513">Comment</tspan></text>
    </g>
    <g
       transform="translate(-30.786784,261.3105)"
       id="g892">
      <rect
         style="opacity:1;fill:#fcaf3e;fill-opacity:1;fill-rule:nonzero;stroke:#7a0000;stroke-width:0.05091554;stroke-miterlimit:4;stroke-dasharray:none;stroke-dashoffset:0;stroke-opacity:1"
         id="rect886"
         width="97.921478"
         height="24.255711"
         x="-112.66953"
         y="159.38406" />
      <text
         xml:space="preserve"
         style="font-style:normal;font-variant:normal;font-weight:normal;font-stretch:normal;font-size:9.04667377px;line-height:1.25;font-family:sans-serif;-inkscape-font-specification:sans-serif;letter-spacing:0px;word-spacing:0px;fill:#000000;fill-opacity:1;stroke:none;stroke-width:0.16962513"
         x="-107.32667"
         y="171.99657"
         id="text890"><tspan
           sodipodi:role="line"
           id="tspan888"
           x="-107.32667"
           y="171.99657"
           style="stroke-width:0.16962513">Comment</tspan></text>
    </g>
    <g
       id="g999"
       transform="translate(-159.29264,39.131496)">
      <rect
         y="311.93723"
         x="-154.69557"
         height="81.64286"
         width="141.3631"
         id="rect855"
         style="opacity:1;fill:#ef2929;fill-opacity:1;fill-rule:nonzero;stroke:#7a0000;stroke-width:0.11615209;stroke-miterlimit:4;stroke-dasharray:none;stroke-dashoffset:0;stroke-opacity:1" />
      <text
         id="text947"
         y="333.34863"
         x="-146.4637"
         style="font-style:normal;font-variant:normal;font-weight:normal;font-stretch:normal;font-size:14.11111069px;line-height:1.25;font-family:sans-serif;-inkscape-font-specification:sans-serif;letter-spacing:0px;word-spacing:0px;fill:#ffffff;fill-opacity:1;stroke:none;stroke-width:0.26458332"
         xml:space="preserve"><tspan
           style="fill:#ffffff;stroke-width:0.26458332"
           y="333.34863"
           x="-146.4637"
           id="tspan945"
           sodipodi:role="line">Votes</tspan></text>
    </g>
    <g
       id="g994"
       transform="translate(-206.86034,-290.83483)">
      <rect
         y="260.71429"
         x="74.083336"
         height="77.213242"
         width="102.82771"
         id="rect853"
         style="opacity:1;fill:#ad7fa8;fill-opacity:1;fill-rule:nonzero;stroke:#7a0000;stroke-width:0.11615209;stroke-miterlimit:4;stroke-dasharray:none;stroke-dashoffset:0;stroke-opacity:1" />
      <text
         id="text951"
         y="283.10199"
         x="87.664398"
         style="font-style:normal;font-variant:normal;font-weight:normal;font-stretch:normal;font-size:14.11111069px;line-height:1.25;font-family:sans-serif;-inkscape-font-specification:sans-serif;letter-spacing:0px;word-spacing:0px;fill:#000000;fill-opacity:1;stroke:none;stroke-width:0.26458332"
         xml:space="preserve"><tspan
           style="stroke-width:0.26458332"
           y="283.10199"
           x="87.664398"
           id="tspan949"
           sodipodi:role="line">Members</tspan></text>
    </g>
    <g
       id="g1050"
       transform="matrix(0.43095143,0,0,0.43095143,-174.94419,-189.55076)">
      <rect
         y="439.18741"
         x="112.2532"
         height="91.940712"
         width="209.53931"
         id="rect1001"
         style="opacity:1;fill:#c17d11;fill-opacity:1;fill-rule:nonzero;stroke:#7a0000;stroke-width:0.11615209;stroke-miterlimit:4;stroke-dasharray:none;stroke-dashoffset:0;stroke-opacity:1" />
      <text
         id="text1005"
         y="475.37482"
         x="122.94398"
         style="font-style:normal;font-variant:normal;font-weight:normal;font-stretch:normal;font-size:14.11111069px;line-height:1.25;font-family:sans-serif;-inkscape-font-specification:sans-serif;letter-spacing:0px;word-spacing:0px;fill:#ffffff;fill-opacity:1;stroke:none;stroke-width:0.26458332"
         xml:space="preserve"><tspan
           style="fill:#ffffff;stroke-width:0.26458332"
           y="475.37482"
           x="122.94398"
           id="tspan1003"
           sodipodi:role="line">Jane Doe</tspan></text>
      <text
         id="text1009"
         y="474.3595"
         x="243.7498"
         style="font-style:normal;font-variant:normal;font-weight:normal;font-stretch:normal;font-size:14.11111069px;line-height:1.25;font-family:sans-serif;-inkscape-font-specification:sans-serif;letter-spacing:0px;word-spacing:0px;fill:#ffffff;fill-opacity:1;stroke:none;stroke-width:0.26458332"
         xml:space="preserve"><tspan
           style="fill:#ffffff;stroke-width:0.26458332"
           y="474.3595"
           x="243.7498"
           id="tspan1007"
           sodipodi:role="line">33</tspan></text>
      <text
         xml:space="preserve"
         style="font-style:normal;font-variant:normal;font-weight:normal;font-stretch:normal;font-size:14.11111069px;line-height:1.25;font-family:sans-serif;-inkscape-font-specification:sans-serif;letter-spacing:0px;word-spacing:0px;fill:#ffffff;fill-opacity:1;stroke:none;stroke-width:0.26458332"
         x="122.94398"
         y="496.54144"
         id="text1013"><tspan
           sodipodi:role="line"
           id="tspan1011"
           x="122.94398"
           y="496.54144"
           style="fill:#ffffff;stroke-width:0.26458332">Rupert  Lee</tspan></text>
      <text
         xml:space="preserve"
         style="font-style:normal;font-variant:normal;font-weight:normal;font-stretch:normal;font-size:14.11111069px;line-height:1.25;font-family:sans-serif;-inkscape-font-specification:sans-serif;letter-spacing:0px;word-spacing:0px;fill:#ffffff;fill-opacity:1;stroke:none;stroke-width:0.26458332"
         x="243.7498"
         y="495.52612"
         id="text1017"><tspan
           sodipodi:role="line"
           id="tspan1015"
           x="243.7498"
           y="495.52612"
           style="fill:#ffffff;stroke-width:0.26458332">10</tspan></text>
      <text
         id="text1021"
         y="517.70813"
         x="122.94398"
         style="font-style:normal;font-variant:normal;font-weight:normal;font-stretch:normal;font-size:14.11111069px;line-height:1.25;font-family:sans-serif;-inkscape-font-specification:sans-serif;letter-spacing:0px;word-spacing:0px;fill:#ffffff;fill-opacity:1;stroke:none;stroke-width:0.26458332"
         xml:space="preserve"><tspan
           style="fill:#ffffff;stroke-width:0.26458332"
           y="517.70813"
           x="122.94398"
           id="tspan1019"
           sodipodi:role="line">Chandra Mavit</tspan></text>
      <text
         id="text1025"
         y="516.69275"
         x="243.7498"
         style="font-style:normal;font-variant:normal;font-weight:normal;font-stretch:normal;font-size:14.11111069px;line-height:1.25;font-family:sans-serif;-inkscape-font-specification:sans-serif;letter-spacing:0px;word-spacing:0px;fill:#ffffff;fill-opacity:1;stroke:none;stroke-width:0.26458332"
         xml:space="preserve"><tspan
           id="tspan1027"
           style="fill:#ffffff;stroke-width:0.26458332"
           y="516.69275"
           x="243.7498"
           sodipodi:role="line">40</tspan></text>
      <text
         id="text1033"
         y="454.15448"
         x="126.15121"
         style="font-style:normal;font-variant:normal;font-weight:normal;font-stretch:normal;font-size:14.11111069px;line-height:1.25;font-family:sans-serif;-inkscape-font-specification:sans-serif;letter-spacing:0px;word-spacing:0px;fill:#000000;fill-opacity:1;stroke:none;stroke-width:0.26458332"
         xml:space="preserve"><tspan
           style="stroke-width:0.26458332"
           y="454.15448"
           x="126.15121"
           id="tspan1031"
           sodipodi:role="line">Standings</tspan></text>
    </g>
    <g
       id="g2531"
       transform="translate(-3.6666665e-7,-21.166667)">
      <rect
         y="188.10596"
         x="-315.54529"
         height="80.886909"
         width="144.3869"
         id="rect851"
         style="opacity:1;fill:#729fcf;fill-opacity:1;fill-rule:nonzero;stroke:#7a0000;stroke-width:0.11615209;stroke-miterlimit:4;stroke-dasharray:none;stroke-dashoffset:0;stroke-opacity:1" />
      <text
         id="text904"
         y="210.78455"
         x="-304.96194"
         style="font-style:normal;font-variant:normal;font-weight:normal;font-stretch:normal;font-size:14.11111069px;line-height:1.25;font-family:sans-serif;-inkscape-font-specification:sans-serif;letter-spacing:0px;word-spacing:0px;fill:#000000;fill-opacity:1;stroke:none;stroke-width:0.26458332"
         xml:space="preserve"><tspan
           style="stroke-width:0.26458332"
           y="210.78455"
           x="-304.96194"
           id="tspan902"
           sodipodi:role="line">Alternative</tspan></text>
      <rect
         transform="rotate(-90)"
         y="-306.16498"
         x="-264.30884"
         height="123.23126"
         width="46.488811"
         id="rect1074"
         style="opacity:1;fill:url(#pattern2522);fill-opacity:1;fill-rule:nonzero;stroke:#7a0000;stroke-width:0.10523286;stroke-miterlimit:4;stroke-dasharray:none;stroke-dashoffset:0;stroke-opacity:1" />
    </g>
    <g
       id="g2577"
       transform="translate(-3.6666665e-7,-68.79167)">
      <rect
         style="opacity:1;fill:#729fcf;fill-opacity:1;fill-rule:nonzero;stroke:#7a0000;stroke-width:0.11615209;stroke-miterlimit:4;stroke-dasharray:none;stroke-dashoffset:0;stroke-opacity:1"
         id="rect2533"
         width="144.3869"
         height="80.886909"
         x="-162.08691"
         y="235.73096" />
      <text
         xml:space="preserve"
         style="font-style:normal;font-variant:normal;font-weight:normal;font-stretch:normal;font-size:14.11111069px;line-height:1.25;font-family:sans-serif;-inkscape-font-specification:sans-serif;letter-spacing:0px;word-spacing:0px;fill:#000000;fill-opacity:1;stroke:none;stroke-width:0.26458332"
         x="-151.50357"
         y="258.40955"
         id="text2537"><tspan
           sodipodi:role="line"
           id="tspan2535"
           x="-151.50357"
           y="258.40955"
           style="stroke-width:0.26458332">Alternative</tspan></text>
      <rect
         style="opacity:1;fill:url(#pattern2564);fill-opacity:1;fill-rule:nonzero;stroke:#7a0000;stroke-width:0.10523286;stroke-miterlimit:4;stroke-dasharray:none;stroke-dashoffset:0;stroke-opacity:1"
         id="rect2539"
         width="46.488811"
         height="123.23126"
         x="-311.93384"
         y="-152.7066"
         transform="rotate(-90)" />
    </g>
    <g
       transform="translate(-2.3666666e-6,64.558341)"
       id="g2551">
      <rect
         y="188.10596"
         x="-315.54529"
         height="80.886909"
         width="144.3869"
         id="rect2543"
         style="opacity:1;fill:#729fcf;fill-opacity:1;fill-rule:nonzero;stroke:#7a0000;stroke-width:0.11615209;stroke-miterlimit:4;stroke-dasharray:none;stroke-dashoffset:0;stroke-opacity:1" />
      <text
         id="text2547"
         y="210.78455"
         x="-304.96194"
         style="font-style:normal;font-variant:normal;font-weight:normal;font-stretch:normal;font-size:14.11111069px;line-height:1.25;font-family:sans-serif;-inkscape-font-specification:sans-serif;letter-spacing:0px;word-spacing:0px;fill:#000000;fill-opacity:1;stroke:none;stroke-width:0.26458332"
         xml:space="preserve"><tspan
           style="stroke-width:0.26458332"
           y="210.78455"
           x="-304.96194"
           id="tspan2545"
           sodipodi:role="line">Alternative</tspan></text>
      <rect
         transform="rotate(-90)"
         y="-306.16498"
         x="-264.30884"
         height="123.23126"
         width="46.488811"
         id="rect2549"
         style="opacity:1;fill:url(#pattern2522);fill-opacity:1;fill-rule:nonzero;stroke:#7a0000;stroke-width:0.10523286;stroke-miterlimit:4;stroke-dasharray:none;stroke-dashoffset:0;stroke-opacity:1" />
    </g>
    <g
       id="g2561"
       transform="translate(153.45837,64.558341)">
      <rect
         style="opacity:1;fill:#729fcf;fill-opacity:1;fill-rule:nonzero;stroke:#7a0000;stroke-width:0.11615209;stroke-miterlimit:4;stroke-dasharray:none;stroke-dashoffset:0;stroke-opacity:1"
         id="rect2553"
         width="144.3869"
         height="80.886909"
         x="-315.54529"
         y="188.10596" />
      <text
         xml:space="preserve"
         style="font-style:normal;font-variant:normal;font-weight:normal;font-stretch:normal;font-size:14.11111069px;line-height:1.25;font-family:sans-serif;-inkscape-font-specification:sans-serif;letter-spacing:0px;word-spacing:0px;fill:#000000;fill-opacity:1;stroke:none;stroke-width:0.26458332"
         x="-304.96194"
         y="210.78455"
         id="text2557"><tspan
           sodipodi:role="line"
           id="tspan2555"
           x="-304.96194"
           y="210.78455"
           style="stroke-width:0.26458332">Alternative</tspan></text>
      <rect
         style="opacity:1;fill:url(#pattern2522);fill-opacity:1;fill-rule:nonzero;stroke:#7a0000;stroke-width:0.10523286;stroke-miterlimit:4;stroke-dasharray:none;stroke-dashoffset:0;stroke-opacity:1"
         id="rect2559"
         width="46.488811"
         height="123.23126"
         x="-264.30884"
         y="-306.16498"
         transform="rotate(-90)" />
    </g>
    <rect
       style="opacity:1;fill:url(#pattern2885);fill-opacity:1;fill-rule:nonzero;stroke:#7a0000;stroke-width:0.12867817;stroke-miterlimit:4;stroke-dasharray:none;stroke-dashoffset:0;stroke-opacity:1"
       id="rect2569"
       width="51.051136"
       height="187.40881"
       x="-162.28528"
       y="-312.2092"
       transform="rotate(-90)"
       ry="0" />
    <rect
       ry="0"
       transform="rotate(-90)"
       y="-312.82407"
       x="-40.006687"
       height="163.72397"
       width="51.059532"
       id="rect2579"
       style="opacity:1;fill:url(#pattern2581);fill-opacity:1;fill-rule:nonzero;stroke:#7a0000;stroke-width:0.1202823;stroke-miterlimit:4;stroke-dasharray:none;stroke-dashoffset:0;stroke-opacity:1" />
    <rect
       y="80.94799"
       x="15.269408"
       height="397.0806"
       width="316.52231"
       id="rect2585"
       style="opacity:1;fill:#8ae234;fill-opacity:1;fill-rule:nonzero;stroke:#7a0000;stroke-width:0.41690004;stroke-miterlimit:4;stroke-dasharray:none;stroke-dashoffset:0;stroke-opacity:1" />
    <text
       id="text2589"
       y="102.72021"
       x="23.43446"
       style="font-style:normal;font-variant:normal;font-weight:normal;font-stretch:normal;font-size:14.11111069px;line-height:1.25;font-family:sans-serif;-inkscape-font-specification:sans-serif;letter-spacing:0px;word-spacing:0px;fill:#5c3566;fill-opacity:1;stroke:none;stroke-width:0.26458332"
       xml:space="preserve"><tspan
         style="fill:#5c3566;stroke-width:0.26458332"
         y="102.72021"
         x="23.43446"
         id="tspan2587"
         sodipodi:role="line">Issue</tspan></text>
    <g
       transform="translate(493.84437,168.48991)"
       id="g2631">
      <g
         id="g2597"
         transform="translate(-201.83929,71.124756)">
        <rect
           y="159.38406"
           x="-112.66953"
           height="24.255711"
           width="97.921478"
           id="rect2591"
           style="opacity:1;fill:#fcaf3e;fill-opacity:1;fill-rule:nonzero;stroke:#7a0000;stroke-width:0.05091554;stroke-miterlimit:4;stroke-dasharray:none;stroke-dashoffset:0;stroke-opacity:1" />
        <text
           id="text2595"
           y="171.99657"
           x="-107.32667"
           style="font-style:normal;font-variant:normal;font-weight:normal;font-stretch:normal;font-size:9.04667377px;line-height:1.25;font-family:sans-serif;-inkscape-font-specification:sans-serif;letter-spacing:0px;word-spacing:0px;fill:#000000;fill-opacity:1;stroke:none;stroke-width:0.16962513"
           xml:space="preserve"><tspan
             style="stroke-width:0.16962513"
             y="171.99657"
             x="-107.32667"
             id="tspan2593"
             sodipodi:role="line">Comment</tspan></text>
      </g>
      <g
         id="g2605"
         transform="translate(-201.83929,25.702381)">
        <rect
           y="159.38406"
           x="-112.66953"
           height="24.255711"
           width="97.921478"
           id="rect2599"
           style="opacity:1;fill:#fcaf3e;fill-opacity:1;fill-rule:nonzero;stroke:#7a0000;stroke-width:0.05091554;stroke-miterlimit:4;stroke-dasharray:none;stroke-dashoffset:0;stroke-opacity:1" />
        <text
           id="text2603"
           y="171.99657"
           x="-107.32667"
           style="font-style:normal;font-variant:normal;font-weight:normal;font-stretch:normal;font-size:9.04667377px;line-height:1.25;font-family:sans-serif;-inkscape-font-specification:sans-serif;letter-spacing:0px;word-spacing:0px;fill:#000000;fill-opacity:1;stroke:none;stroke-width:0.16962513"
           xml:space="preserve"><tspan
             style="stroke-width:0.16962513"
             y="171.99657"
             x="-107.32667"
             id="tspan2601"
             sodipodi:role="line">Comment</tspan></text>
      </g>
      <g
         transform="translate(-185.96428,49.958088)"
         id="g2613">
        <rect
           style="opacity:1;fill:#fcaf3e;fill-opacity:1;fill-rule:nonzero;stroke:#7a0000;stroke-width:0.05091554;stroke-miterlimit:4;stroke-dasharray:none;stroke-dashoffset:0;stroke-opacity:1"
           id="rect2607"
           width="97.921478"
           height="24.255711"
           x="-112.66953"
           y="159.38406" />
        <text
           xml:space="preserve"
           style="font-style:normal;font-variant:normal;font-weight:normal;font-stretch:normal;font-size:9.04667377px;line-height:1.25;font-family:sans-serif;-inkscape-font-specification:sans-serif;letter-spacing:0px;word-spacing:0px;fill:#000000;fill-opacity:1;stroke:none;stroke-width:0.16962513"
           x="-107.32667"
           y="171.99657"
           id="text2611"><tspan
             sodipodi:role="line"
             id="tspan2609"
             x="-107.32667"
             y="171.99657"
             style="stroke-width:0.16962513">Comment</tspan></text>
      </g>
      <g
         transform="translate(-185.96428,92.820591)"
         id="g2621">
        <rect
           style="opacity:1;fill:#fcaf3e;fill-opacity:1;fill-rule:nonzero;stroke:#7a0000;stroke-width:0.05091554;stroke-miterlimit:4;stroke-dasharray:none;stroke-dashoffset:0;stroke-opacity:1"
           id="rect2615"
           width="97.921478"
           height="24.255711"
           x="-112.66953"
           y="159.38406" />
        <text
           xml:space="preserve"
           style="font-style:normal;font-variant:normal;font-weight:normal;font-stretch:normal;font-size:9.04667377px;line-height:1.25;font-family:sans-serif;-inkscape-font-specification:sans-serif;letter-spacing:0px;word-spacing:0px;fill:#000000;fill-opacity:1;stroke:none;stroke-width:0.16962513"
           x="-107.32667"
           y="171.99657"
           id="text2619"><tspan
             sodipodi:role="line"
             id="tspan2617"
             x="-107.32667"
             y="171.99657"
             style="stroke-width:0.16962513">Comment</tspan></text>
      </g>
      <g
         id="g2629"
         transform="translate(-164.7976,113.98726)">
        <rect
           y="159.38406"
           x="-112.66953"
           height="24.255711"
           width="97.921478"
           id="rect2623"
           style="opacity:1;fill:#fcaf3e;fill-opacity:1;fill-rule:nonzero;stroke:#7a0000;stroke-width:0.05091554;stroke-miterlimit:4;stroke-dasharray:none;stroke-dashoffset:0;stroke-opacity:1" />
        <text
           id="text2627"
           y="171.99657"
           x="-107.32667"
           style="font-style:normal;font-variant:normal;font-weight:normal;font-stretch:normal;font-size:9.04667377px;line-height:1.25;font-family:sans-serif;-inkscape-font-specification:sans-serif;letter-spacing:0px;word-spacing:0px;fill:#000000;fill-opacity:1;stroke:none;stroke-width:0.16962513"
           xml:space="preserve"><tspan
             style="stroke-width:0.16962513"
             y="171.99657"
             x="-107.32667"
             id="tspan2625"
             sodipodi:role="line">Comment</tspan></text>
      </g>
    </g>
    <g
       transform="translate(179.37412,39.131496)"
       id="g2639">
      <rect
         style="opacity:1;fill:#ef2929;fill-opacity:1;fill-rule:nonzero;stroke:#7a0000;stroke-width:0.11615209;stroke-miterlimit:4;stroke-dasharray:none;stroke-dashoffset:0;stroke-opacity:1"
         id="rect2633"
         width="141.3631"
         height="81.64286"
         x="-154.69557"
         y="311.93723" />
      <text
         xml:space="preserve"
         style="font-style:normal;font-variant:normal;font-weight:normal;font-stretch:normal;font-size:14.11111069px;line-height:1.25;font-family:sans-serif;-inkscape-font-specification:sans-serif;letter-spacing:0px;word-spacing:0px;fill:#ffffff;fill-opacity:1;stroke:none;stroke-width:0.26458332"
         x="-146.4637"
         y="333.34863"
         id="text2637"><tspan
           sodipodi:role="line"
           id="tspan2635"
           x="-146.4637"
           y="333.34863"
           style="fill:#ffffff;stroke-width:0.26458332">Votes</tspan></text>
    </g>
    <g
       transform="translate(338.66682,-21.166667)"
       id="g2649">
      <rect
         style="opacity:1;fill:#729fcf;fill-opacity:1;fill-rule:nonzero;stroke:#7a0000;stroke-width:0.11615209;stroke-miterlimit:4;stroke-dasharray:none;stroke-dashoffset:0;stroke-opacity:1"
         id="rect2641"
         width="144.3869"
         height="80.886909"
         x="-315.54529"
         y="188.10596" />
      <text
         xml:space="preserve"
         style="font-style:normal;font-variant:normal;font-weight:normal;font-stretch:normal;font-size:14.11111069px;line-height:1.25;font-family:sans-serif;-inkscape-font-specification:sans-serif;letter-spacing:0px;word-spacing:0px;fill:#000000;fill-opacity:1;stroke:none;stroke-width:0.26458332"
         x="-304.96194"
         y="210.78455"
         id="text2645"><tspan
           sodipodi:role="line"
           id="tspan2643"
           x="-304.96194"
           y="210.78455"
           style="stroke-width:0.26458332">Alternative</tspan></text>
      <rect
         style="opacity:1;fill:url(#pattern2522);fill-opacity:1;fill-rule:nonzero;stroke:#7a0000;stroke-width:0.10523286;stroke-miterlimit:4;stroke-dasharray:none;stroke-dashoffset:0;stroke-opacity:1"
         id="rect2647"
         width="46.488811"
         height="123.23126"
         x="-264.30884"
         y="-306.16498"
         transform="rotate(-90)" />
    </g>
    <g
       transform="translate(338.66682,-68.79167)"
       id="g2659">
      <rect
         y="235.73096"
         x="-162.08691"
         height="80.886909"
         width="144.3869"
         id="rect2651"
         style="opacity:1;fill:#729fcf;fill-opacity:1;fill-rule:nonzero;stroke:#7a0000;stroke-width:0.11615209;stroke-miterlimit:4;stroke-dasharray:none;stroke-dashoffset:0;stroke-opacity:1" />
      <text
         id="text2655"
         y="258.40955"
         x="-151.50357"
         style="font-style:normal;font-variant:normal;font-weight:normal;font-stretch:normal;font-size:14.11111069px;line-height:1.25;font-family:sans-serif;-inkscape-font-specification:sans-serif;letter-spacing:0px;word-spacing:0px;fill:#000000;fill-opacity:1;stroke:none;stroke-width:0.26458332"
         xml:space="preserve"><tspan
           style="stroke-width:0.26458332"
           y="258.40955"
           x="-151.50357"
           id="tspan2653"
           sodipodi:role="line">Alternative</tspan></text>
      <rect
         transform="rotate(-90)"
         y="-152.7066"
         x="-311.93384"
         height="123.23126"
         width="46.488811"
         id="rect2657"
         style="opacity:1;fill:url(#pattern2564);fill-opacity:1;fill-rule:nonzero;stroke:#7a0000;stroke-width:0.10523286;stroke-miterlimit:4;stroke-dasharray:none;stroke-dashoffset:0;stroke-opacity:1" />
    </g>
    <g
       id="g2669"
       transform="translate(338.66682,64.558341)">
      <rect
         style="opacity:1;fill:#729fcf;fill-opacity:1;fill-rule:nonzero;stroke:#7a0000;stroke-width:0.11615209;stroke-miterlimit:4;stroke-dasharray:none;stroke-dashoffset:0;stroke-opacity:1"
         id="rect2661"
         width="144.3869"
         height="80.886909"
         x="-315.54529"
         y="188.10596" />
      <text
         xml:space="preserve"
         style="font-style:normal;font-variant:normal;font-weight:normal;font-stretch:normal;font-size:14.11111069px;line-height:1.25;font-family:sans-serif;-inkscape-font-specification:sans-serif;letter-spacing:0px;word-spacing:0px;fill:#000000;fill-opacity:1;stroke:none;stroke-width:0.26458332"
         x="-304.96194"
         y="210.78455"
         id="text2665"><tspan
           sodipodi:role="line"
           id="tspan2663"
           x="-304.96194"
           y="210.78455"
           style="stroke-width:0.26458332">Alternative</tspan></text>
      <rect
         style="opacity:1;fill:url(#pattern2522);fill-opacity:1;fill-rule:nonzero;stroke:#7a0000;stroke-width:0.10523286;stroke-miterlimit:4;stroke-dasharray:none;stroke-dashoffset:0;stroke-opacity:1"
         id="rect2667"
         width="46.488811"
         height="123.23126"
         x="-264.30884"
         y="-306.16498"
         transform="rotate(-90)" />
    </g>
    <rect
       ry="0"
       transform="rotate(-90)"
       y="26.457474"
       x="-162.28528"
       height="187.40881"
       width="51.051136"
       id="rect2681"
       style="opacity:1;fill:url(#pattern2883);fill-opacity:1;fill-rule:nonzero;stroke:#7a0000;stroke-width:0.12867817;stroke-miterlimit:4;stroke-dasharray:none;stroke-dashoffset:0;stroke-opacity:1" />
    <rect
       style="opacity:1;fill:#8ae234;fill-opacity:1;fill-rule:nonzero;stroke:#7a0000;stroke-width:0.41690004;stroke-miterlimit:4;stroke-dasharray:none;stroke-dashoffset:0;stroke-opacity:1"
       id="rect2685"
       width="316.52231"
       height="397.0806"
       x="-323.39725"
       y="493.69766" />
    <text
       xml:space="preserve"
       style="font-style:normal;font-variant:normal;font-weight:normal;font-stretch:normal;font-size:14.11111069px;line-height:1.25;font-family:sans-serif;-inkscape-font-specification:sans-serif;letter-spacing:0px;word-spacing:0px;fill:#5c3566;fill-opacity:1;stroke:none;stroke-width:0.26458332"
       x="-315.23221"
       y="515.46985"
       id="text2689"><tspan
         sodipodi:role="line"
         id="tspan2687"
         x="-315.23221"
         y="515.46985"
         style="fill:#5c3566;stroke-width:0.26458332">Issue</tspan></text>
    <g
       id="g2697"
       transform="translate(-46.661714,652.36493)">
      <rect
         y="159.38406"
         x="-112.66953"
         height="24.255711"
         width="97.921478"
         id="rect2691"
         style="opacity:1;fill:#fcaf3e;fill-opacity:1;fill-rule:nonzero;stroke:#7a0000;stroke-width:0.05091554;stroke-miterlimit:4;stroke-dasharray:none;stroke-dashoffset:0;stroke-opacity:1" />
      <text
         id="text2695"
         y="171.99657"
         x="-107.32667"
         style="font-style:normal;font-variant:normal;font-weight:normal;font-stretch:normal;font-size:9.04667377px;line-height:1.25;font-family:sans-serif;-inkscape-font-specification:sans-serif;letter-spacing:0px;word-spacing:0px;fill:#000000;fill-opacity:1;stroke:none;stroke-width:0.16962513"
         xml:space="preserve"><tspan
           style="stroke-width:0.16962513"
           y="171.99657"
           x="-107.32667"
           id="tspan2693"
           sodipodi:role="line">Comment</tspan></text>
    </g>
    <g
       id="g2705"
       transform="translate(-46.661714,606.94255)">
      <rect
         y="159.38406"
         x="-112.66953"
         height="24.255711"
         width="97.921478"
         id="rect2699"
         style="opacity:1;fill:#fcaf3e;fill-opacity:1;fill-rule:nonzero;stroke:#7a0000;stroke-width:0.05091554;stroke-miterlimit:4;stroke-dasharray:none;stroke-dashoffset:0;stroke-opacity:1" />
      <text
         id="text2703"
         y="171.99657"
         x="-107.32667"
         style="font-style:normal;font-variant:normal;font-weight:normal;font-stretch:normal;font-size:9.04667377px;line-height:1.25;font-family:sans-serif;-inkscape-font-specification:sans-serif;letter-spacing:0px;word-spacing:0px;fill:#000000;fill-opacity:1;stroke:none;stroke-width:0.16962513"
         xml:space="preserve"><tspan
           style="stroke-width:0.16962513"
           y="171.99657"
           x="-107.32667"
           id="tspan2701"
           sodipodi:role="line">Comment</tspan></text>
    </g>
    <g
       transform="translate(-30.786713,631.19826)"
       id="g2713">
      <rect
         style="opacity:1;fill:#fcaf3e;fill-opacity:1;fill-rule:nonzero;stroke:#7a0000;stroke-width:0.05091554;stroke-miterlimit:4;stroke-dasharray:none;stroke-dashoffset:0;stroke-opacity:1"
         id="rect2707"
         width="97.921478"
         height="24.255711"
         x="-112.66953"
         y="159.38406" />
      <text
         xml:space="preserve"
         style="font-style:normal;font-variant:normal;font-weight:normal;font-stretch:normal;font-size:9.04667377px;line-height:1.25;font-family:sans-serif;-inkscape-font-specification:sans-serif;letter-spacing:0px;word-spacing:0px;fill:#000000;fill-opacity:1;stroke:none;stroke-width:0.16962513"
         x="-107.32667"
         y="171.99657"
         id="text2711"><tspan
           sodipodi:role="line"
           id="tspan2709"
           x="-107.32667"
           y="171.99657"
           style="stroke-width:0.16962513">Comment</tspan></text>
    </g>
    <g
       transform="translate(-46.661714,674.06076)"
       id="g2721">
      <rect
         style="opacity:1;fill:#fcaf3e;fill-opacity:1;fill-rule:nonzero;stroke:#7a0000;stroke-width:0.05091554;stroke-miterlimit:4;stroke-dasharray:none;stroke-dashoffset:0;stroke-opacity:1"
         id="rect2715"
         width="97.921478"
         height="24.255711"
         x="-112.66953"
         y="159.38406" />
      <text
         xml:space="preserve"
         style="font-style:normal;font-variant:normal;font-weight:normal;font-stretch:normal;font-size:9.04667377px;line-height:1.25;font-family:sans-serif;-inkscape-font-specification:sans-serif;letter-spacing:0px;word-spacing:0px;fill:#000000;fill-opacity:1;stroke:none;stroke-width:0.16962513"
         x="-107.32667"
         y="171.99657"
         id="text2719"><tspan
           sodipodi:role="line"
           id="tspan2717"
           x="-107.32667"
           y="171.99657"
           style="stroke-width:0.16962513">Comment</tspan></text>
    </g>
    <g
       id="g2729"
       transform="translate(-25.495046,695.22743)">
      <rect
         y="159.38406"
         x="-112.66953"
         height="24.255711"
         width="97.921478"
         id="rect2723"
         style="opacity:1;fill:#fcaf3e;fill-opacity:1;fill-rule:nonzero;stroke:#7a0000;stroke-width:0.05091554;stroke-miterlimit:4;stroke-dasharray:none;stroke-dashoffset:0;stroke-opacity:1" />
      <text
         id="text2727"
         y="171.99657"
         x="-107.32667"
         style="font-style:normal;font-variant:normal;font-weight:normal;font-stretch:normal;font-size:9.04667377px;line-height:1.25;font-family:sans-serif;-inkscape-font-specification:sans-serif;letter-spacing:0px;word-spacing:0px;fill:#000000;fill-opacity:1;stroke:none;stroke-width:0.16962513"
         xml:space="preserve"><tspan
           style="stroke-width:0.16962513"
           y="171.99657"
           x="-107.32667"
           id="tspan2725"
           sodipodi:role="line">Comment</tspan></text>
    </g>
    <g
       id="g2739"
       transform="translate(-159.29264,451.88172)">
      <rect
         y="311.93723"
         x="-154.69557"
         height="81.64286"
         width="141.3631"
         id="rect2733"
         style="opacity:1;fill:#ef2929;fill-opacity:1;fill-rule:nonzero;stroke:#7a0000;stroke-width:0.11615209;stroke-miterlimit:4;stroke-dasharray:none;stroke-dashoffset:0;stroke-opacity:1" />
      <text
         id="text2737"
         y="333.34863"
         x="-146.4637"
         style="font-style:normal;font-variant:normal;font-weight:normal;font-stretch:normal;font-size:14.11111069px;line-height:1.25;font-family:sans-serif;-inkscape-font-specification:sans-serif;letter-spacing:0px;word-spacing:0px;fill:#ffffff;fill-opacity:1;stroke:none;stroke-width:0.26458332"
         xml:space="preserve"><tspan
           style="fill:#ffffff;stroke-width:0.26458332"
           y="333.34863"
           x="-146.4637"
           id="tspan2735"
           sodipodi:role="line">Votes</tspan></text>
    </g>
    <g
       id="g2749"
       transform="translate(-2.3666666e-6,391.58352)">
      <rect
         y="188.10596"
         x="-315.54529"
         height="80.886909"
         width="144.3869"
         id="rect2741"
         style="opacity:1;fill:#729fcf;fill-opacity:1;fill-rule:nonzero;stroke:#7a0000;stroke-width:0.11615209;stroke-miterlimit:4;stroke-dasharray:none;stroke-dashoffset:0;stroke-opacity:1" />
      <text
         id="text2745"
         y="210.78455"
         x="-304.96194"
         style="font-style:normal;font-variant:normal;font-weight:normal;font-stretch:normal;font-size:14.11111069px;line-height:1.25;font-family:sans-serif;-inkscape-font-specification:sans-serif;letter-spacing:0px;word-spacing:0px;fill:#000000;fill-opacity:1;stroke:none;stroke-width:0.26458332"
         xml:space="preserve"><tspan
           style="stroke-width:0.26458332"
           y="210.78455"
           x="-304.96194"
           id="tspan2743"
           sodipodi:role="line">Alternative</tspan></text>
      <rect
         transform="rotate(-90)"
         y="-306.16498"
         x="-264.30884"
         height="123.23126"
         width="46.488811"
         id="rect2747"
         style="opacity:1;fill:url(#pattern2522);fill-opacity:1;fill-rule:nonzero;stroke:#7a0000;stroke-width:0.10523286;stroke-miterlimit:4;stroke-dasharray:none;stroke-dashoffset:0;stroke-opacity:1" />
    </g>
    <g
       id="g2759"
       transform="translate(-2.3666666e-6,343.95849)">
      <rect
         style="opacity:1;fill:#729fcf;fill-opacity:1;fill-rule:nonzero;stroke:#7a0000;stroke-width:0.11615209;stroke-miterlimit:4;stroke-dasharray:none;stroke-dashoffset:0;stroke-opacity:1"
         id="rect2751"
         width="144.3869"
         height="80.886909"
         x="-162.08691"
         y="235.73096" />
      <text
         xml:space="preserve"
         style="font-style:normal;font-variant:normal;font-weight:normal;font-stretch:normal;font-size:14.11111069px;line-height:1.25;font-family:sans-serif;-inkscape-font-specification:sans-serif;letter-spacing:0px;word-spacing:0px;fill:#000000;fill-opacity:1;stroke:none;stroke-width:0.26458332"
         x="-151.50357"
         y="258.40955"
         id="text2755"><tspan
           sodipodi:role="line"
           id="tspan2753"
           x="-151.50357"
           y="258.40955"
           style="stroke-width:0.26458332">Alternative</tspan></text>
      <rect
         style="opacity:1;fill:url(#pattern2564);fill-opacity:1;fill-rule:nonzero;stroke:#7a0000;stroke-width:0.10523286;stroke-miterlimit:4;stroke-dasharray:none;stroke-dashoffset:0;stroke-opacity:1"
         id="rect2757"
         width="46.488811"
         height="123.23126"
         x="-311.93384"
         y="-152.7066"
         transform="rotate(-90)" />
    </g>
    <g
       transform="translate(-2.3666666e-6,477.30858)"
       id="g2769">
      <rect
         y="188.10596"
         x="-315.54529"
         height="80.886909"
         width="144.3869"
         id="rect2761"
         style="opacity:1;fill:#729fcf;fill-opacity:1;fill-rule:nonzero;stroke:#7a0000;stroke-width:0.11615209;stroke-miterlimit:4;stroke-dasharray:none;stroke-dashoffset:0;stroke-opacity:1" />
      <text
         id="text2765"
         y="210.78455"
         x="-304.96194"
         style="font-style:normal;font-variant:normal;font-weight:normal;font-stretch:normal;font-size:14.11111069px;line-height:1.25;font-family:sans-serif;-inkscape-font-specification:sans-serif;letter-spacing:0px;word-spacing:0px;fill:#000000;fill-opacity:1;stroke:none;stroke-width:0.26458332"
         xml:space="preserve"><tspan
           style="stroke-width:0.26458332"
           y="210.78455"
           x="-304.96194"
           id="tspan2763"
           sodipodi:role="line">Alternative</tspan></text>
      <rect
         transform="rotate(-90)"
         y="-306.16498"
         x="-264.30884"
         height="123.23126"
         width="46.488811"
         id="rect2767"
         style="opacity:1;fill:url(#pattern2522);fill-opacity:1;fill-rule:nonzero;stroke:#7a0000;stroke-width:0.10523286;stroke-miterlimit:4;stroke-dasharray:none;stroke-dashoffset:0;stroke-opacity:1" />
    </g>
    <g
       id="g2779"
       transform="translate(153.45837,477.30858)">
      <rect
         style="opacity:1;fill:#729fcf;fill-opacity:1;fill-rule:nonzero;stroke:#7a0000;stroke-width:0.11615209;stroke-miterlimit:4;stroke-dasharray:none;stroke-dashoffset:0;stroke-opacity:1"
         id="rect2771"
         width="144.3869"
         height="80.886909"
         x="-315.54529"
         y="188.10596" />
      <text
         xml:space="preserve"
         style="font-style:normal;font-variant:normal;font-weight:normal;font-stretch:normal;font-size:14.11111069px;line-height:1.25;font-family:sans-serif;-inkscape-font-specification:sans-serif;letter-spacing:0px;word-spacing:0px;fill:#000000;fill-opacity:1;stroke:none;stroke-width:0.26458332"
         x="-304.96194"
         y="210.78455"
         id="text2775"><tspan
           sodipodi:role="line"
           id="tspan2773"
           x="-304.96194"
           y="210.78455"
           style="stroke-width:0.26458332">Alternative</tspan></text>
      <rect
         style="opacity:1;fill:url(#pattern2522);fill-opacity:1;fill-rule:nonzero;stroke:#7a0000;stroke-width:0.10523286;stroke-miterlimit:4;stroke-dasharray:none;stroke-dashoffset:0;stroke-opacity:1"
         id="rect2777"
         width="46.488811"
         height="123.23126"
         x="-264.30884"
         y="-306.16498"
         transform="rotate(-90)" />
    </g>
    <rect
       style="opacity:1;fill:url(#pattern2783);fill-opacity:1;fill-rule:nonzero;stroke:#7a0000;stroke-width:0.12867817;stroke-miterlimit:4;stroke-dasharray:none;stroke-dashoffset:0;stroke-opacity:1"
       id="rect2781"
       width="51.051136"
       height="187.40881"
       x="-575.0351"
       y="-312.2092"
       transform="rotate(-90)"
       ry="0" />
    <g
       transform="matrix(0.48563387,0,0,0.48563387,162.87914,-102.43836)"
       id="g2875">
      <rect
         style="opacity:1;fill:#c17d11;fill-opacity:1;fill-rule:nonzero;stroke:#7a0000;stroke-width:0.11615209;stroke-miterlimit:4;stroke-dasharray:none;stroke-dashoffset:0;stroke-opacity:1"
         id="rect2845"
         width="209.53931"
         height="91.940712"
         x="112.2532"
         y="439.18741" />
      <text
         xml:space="preserve"
         style="font-style:normal;font-variant:normal;font-weight:normal;font-stretch:normal;font-size:14.11111069px;line-height:1.25;font-family:sans-serif;-inkscape-font-specification:sans-serif;letter-spacing:0px;word-spacing:0px;fill:#ffffff;fill-opacity:1;stroke:none;stroke-width:0.26458332"
         x="122.94398"
         y="475.37482"
         id="text2849"><tspan
           sodipodi:role="line"
           id="tspan2847"
           x="122.94398"
           y="475.37482"
           style="fill:#ffffff;stroke-width:0.26458332">Jane Doe</tspan></text>
      <text
         xml:space="preserve"
         style="font-style:normal;font-variant:normal;font-weight:normal;font-stretch:normal;font-size:14.11111069px;line-height:1.25;font-family:sans-serif;-inkscape-font-specification:sans-serif;letter-spacing:0px;word-spacing:0px;fill:#ffffff;fill-opacity:1;stroke:none;stroke-width:0.26458332"
         x="243.7498"
         y="474.3595"
         id="text2853"><tspan
           sodipodi:role="line"
           id="tspan2851"
           x="243.7498"
           y="474.3595"
           style="fill:#ffffff;stroke-width:0.26458332">33</tspan></text>
      <text
         id="text2857"
         y="496.54144"
         x="122.94398"
         style="font-style:normal;font-variant:normal;font-weight:normal;font-stretch:normal;font-size:14.11111069px;line-height:1.25;font-family:sans-serif;-inkscape-font-specification:sans-serif;letter-spacing:0px;word-spacing:0px;fill:#ffffff;fill-opacity:1;stroke:none;stroke-width:0.26458332"
         xml:space="preserve"><tspan
           style="fill:#ffffff;stroke-width:0.26458332"
           y="496.54144"
           x="122.94398"
           id="tspan2855"
           sodipodi:role="line">Rupert  Lee</tspan></text>
      <text
         id="text2861"
         y="495.52612"
         x="243.7498"
         style="font-style:normal;font-variant:normal;font-weight:normal;font-stretch:normal;font-size:14.11111069px;line-height:1.25;font-family:sans-serif;-inkscape-font-specification:sans-serif;letter-spacing:0px;word-spacing:0px;fill:#ffffff;fill-opacity:1;stroke:none;stroke-width:0.26458332"
         xml:space="preserve"><tspan
           style="fill:#ffffff;stroke-width:0.26458332"
           y="495.52612"
           x="243.7498"
           id="tspan2859"
           sodipodi:role="line">10</tspan></text>
      <text
         xml:space="preserve"
         style="font-style:normal;font-variant:normal;font-weight:normal;font-stretch:normal;font-size:14.11111069px;line-height:1.25;font-family:sans-serif;-inkscape-font-specification:sans-serif;letter-spacing:0px;word-spacing:0px;fill:#ffffff;fill-opacity:1;stroke:none;stroke-width:0.26458332"
         x="122.94398"
         y="517.70813"
         id="text2865"><tspan
           sodipodi:role="line"
           id="tspan2863"
           x="122.94398"
           y="517.70813"
           style="fill:#ffffff;stroke-width:0.26458332">Chandra Mavit</tspan></text>
      <text
         xml:space="preserve"
         style="font-style:normal;font-variant:normal;font-weight:normal;font-stretch:normal;font-size:14.11111069px;line-height:1.25;font-family:sans-serif;-inkscape-font-specification:sans-serif;letter-spacing:0px;word-spacing:0px;fill:#ffffff;fill-opacity:1;stroke:none;stroke-width:0.26458332"
         x="243.7498"
         y="516.69275"
         id="text2869"><tspan
           sodipodi:role="line"
           x="243.7498"
           y="516.69275"
           style="fill:#ffffff;stroke-width:0.26458332"
           id="tspan2867">40</tspan></text>
      <text
         xml:space="preserve"
         style="font-style:normal;font-variant:normal;font-weight:normal;font-stretch:normal;font-size:14.11111069px;line-height:1.25;font-family:sans-serif;-inkscape-font-specification:sans-serif;letter-spacing:0px;word-spacing:0px;fill:#000000;fill-opacity:1;stroke:none;stroke-width:0.26458332"
         x="126.15121"
         y="454.15448"
         id="text2873"><tspan
           sodipodi:role="line"
           id="tspan2871"
           x="126.15121"
           y="454.15448"
           style="stroke-width:0.26458332">Standings</tspan></text>
    </g>
    <g
       id="g2890"
       transform="matrix(0.54720946,0,0,0.54720946,-194.53189,-72.396112)">
      <rect
         ry="75.724358"
         y="53.171909"
         x="367.95044"
         height="158.17747"
         width="287.18964"
         id="rect2877"
         style="opacity:0.56300001;fill:#5c3566;fill-opacity:0.6039604;fill-rule:nonzero;stroke:#7a0000;stroke-width:0.11615209;stroke-miterlimit:4;stroke-dasharray:none;stroke-dashoffset:0;stroke-opacity:1" />
      <text
         id="text2881"
         y="146.53354"
         x="425.72925"
         style="font-style:normal;font-variant:normal;font-weight:normal;font-stretch:normal;font-size:42.14374542px;line-height:1.25;font-family:sans-serif;-inkscape-font-specification:sans-serif;letter-spacing:0px;word-spacing:0px;fill:#ffffff;fill-opacity:1;stroke:none;stroke-width:0.79019517"
         xml:space="preserve"><tspan
           style="fill:#ffffff;stroke-width:0.79019517"
           y="146.53354"
           x="425.72925"
           id="tspan2879"
           sodipodi:role="line">Payload</tspan></text>
    </g>
  </g>
</svg>
