<?xml version="1.0" encoding="UTF-8" standalone="no"?>
<!-- Created by diasvg.py -->
<svg width="15.701cm" height="20.950cm" viewBox="0.319 1.050 15.701 20.950"
 xmlns="http://www.w3.org/2000/svg"
 xmlns:xlink="http://www.w3.org/1999/xlink">
<!-- Layer: Background -->
<g id="Background">
<!-- Flowchart - Box -->
<rect x="0.687" y="6.400" width="3.125" height="1.900" fill="#FCE94F" stroke="#000000" stroke-width="0.100"  rx="0.000" />
<text x="2.250" y="7.530"  fill="#000000" text-anchor="middle" font-size="0.80" font-family="sans" font-style="normal" font-weight="400">
Islands</text>
<!-- Flowchart - Box -->
<rect x="1.007" y="1.100" width="2.485" height="1.900" fill="#FFFFFF" stroke="#000000" stroke-width="0.100"  rx="0.000" />
<text x="2.250" y="2.230"  fill="#000000" text-anchor="middle" font-size="0.80" font-family="sans" font-style="normal" font-weight="400">
Lake</text>
<!-- Flowchart - Box -->
<rect x="0.369" y="11.575" width="3.763" height="1.900" fill="#AD7FA8" stroke="#000000" stroke-width="0.100"  rx="0.000" />
<text x="2.250" y="12.705"  fill="#000000" text-anchor="middle" font-size="0.80" font-family="sans" font-style="normal" font-weight="400">
Members</text>
<!-- Flowchart - Terminal -->
<path stroke="#000000" fill="#C17D11" stroke-width="0.100"  d="M 6.283,11.525 L 9.318,11.525 C 9.737,11.525 10.076,11.973 10.076,12.525 C 10.076,13.077 9.737,13.525 9.318,13.525 L 6.283,13.525 C 5.863,13.525 5.524,13.077 5.524,12.525 C 5.524,11.973 5.863,11.525 6.283,11.525 z"/>
<text x="7.800" y="12.725"  fill="#000000" text-anchor="middle" font-size="0.80" font-family="sans" font-style="normal" font-weight="400">
standings</text>
<!-- Flowchart - Box -->
<rect x="12.276" y="11.575" width="2.947" height="1.900" fill="#8AE234" stroke="#000000" stroke-width="0.100"  rx="0.000" />
<text x="13.750" y="12.705"  fill="#000000" text-anchor="middle" font-size="0.80" font-family="sans" font-style="normal" font-weight="400">
Issues</text>
<!-- Flowchart - Box -->
<rect x="11.530" y="16.500" width="4.440" height="1.900" fill="#729FCF" stroke="#000000" stroke-width="0.100"  rx="0.000" />
<text x="13.750" y="17.630"  fill="#000000" text-anchor="middle" font-size="0.80" font-family="sans" font-style="normal" font-weight="400">
Alternatives</text>
<!-- Flowchart - Box -->
<rect x="12.400" y="20.050" width="2.700" height="1.900" fill="#EF2929" stroke="#000000" stroke-width="0.100"  rx="0.000" />
<text x="13.750" y="21.180"  fill="#000000" text-anchor="middle" font-size="0.80" font-family="sans" font-style="normal" font-weight="400">
Votes</text>
<!-- Flowchart - Box -->
<rect x="5.755" y="16.500" width="4.190" height="1.900" fill="#FCAF3E" stroke="#000000" stroke-width="0.100"  rx="0.000" />
<text x="7.850" y="17.630"  fill="#000000" text-anchor="middle" font-size="0.80" font-family="sans" font-style="normal" font-weight="400">
Comments</text>
<!-- Standard - Line -->
<line x1="2.250" y1="3.050" x2="2.250" y2="5.864" stroke="#000000" stroke-width="0.100" />
<polygon fill="#000000" stroke="#000000" stroke-width="0.100"  points="2.250,6.239 2.000,5.739 2.250,5.864 2.500,5.739 "/>
<!-- Standard - Line -->
<line x1="2.250" y1="8.346" x2="2.250" y2="11.043" stroke="#000000" stroke-width="0.100" />
<polygon fill="#000000" stroke="#000000" stroke-width="0.100"  points="2.250,11.418 2.000,10.918 2.250,11.043 2.500,10.918 "/>
<!-- Standard - Line -->
<line x1="3.862" y1="8.076" x2="11.725" y2="11.614" stroke="#000000" stroke-width="0.100" />
<polygon fill="#000000" stroke="#000000" stroke-width="0.100"  points="11.623,11.842 12.181,11.819 11.828,11.386 "/>
<!-- Standard - Line -->
<line x1="12.227" y1="12.525" x2="10.626" y2="12.525" stroke="#000000" stroke-width="0.100" />
<polygon fill="#000000" stroke="#000000" stroke-width="0.100"  points="10.626,12.275 10.126,12.525 10.626,12.775 "/>
<!-- Standard - Line -->
<line x1="5.534" y1="12.525" x2="4.731" y2="12.525" stroke="#000000" stroke-width="0.100" />
<polygon fill="#000000" stroke="#000000" stroke-width="0.100"  points="4.731,12.275 4.231,12.525 4.731,12.775 "/>
<!-- Standard - Line -->
<line x1="13.750" y1="13.487" x2="13.750" y2="15.938" stroke="#000000" stroke-width="0.100" />
<polygon fill="#000000" stroke="#000000" stroke-width="0.100"  points="13.500,15.938 13.750,16.438 14.000,15.938 "/>
<!-- Standard - Line -->
<line x1="13.750" y1="18.449" x2="13.750" y2="19.451" stroke="#000000" stroke-width="0.100" />
<polygon fill="#000000" stroke="#000000" stroke-width="0.100"  points="13.500,19.451 13.750,19.951 14.000,19.451 "/>
<!-- Standard - Line -->
<line x1="3.344" y1="13.487" x2="6.343" y2="16.125" stroke="#000000" stroke-width="0.100" />
<polygon fill="#000000" stroke="#000000" stroke-width="0.100"  points="6.178,16.313 6.719,16.455 6.508,15.937 "/>
<!-- Standard - ZigZagLine -->
<polyline fill="none" stroke="#000000" stroke-width="0.100"  points="2.250,13.475 2.250,21.475 11.850,21.475 "/>
<polygon fill="#000000" stroke="#000000" stroke-width="0.100"  points="11.850,21.725 12.350,21.475 11.850,21.225 "/>
<!-- Flowchart - Box -->
<rect x="12.045" y="6.450" width="3.410" height="1.900" fill="#C6B497" stroke="#000000" stroke-width="0.100"  rx="0.000" />
<text x="13.750" y="7.580"  fill="#000000" text-anchor="middle" font-size="0.80" font-family="sans" font-style="normal" font-weight="400">
Payload</text>
<!-- Standard - Line -->
<line x1="3.862" y1="7.357" x2="11.445" y2="7.390" stroke="#000000" stroke-width="0.100" />
<polygon fill="#000000" stroke="#000000" stroke-width="0.100"  points="11.444,7.640 11.945,7.392 11.446,7.140 "/>
<!-- Standard - Line -->
<line x1="9.002" y1="16.488" x2="12.175" y2="13.839" stroke="#000000" stroke-width="0.100" />
<polygon fill="#000000" stroke="#000000" stroke-width="0.100"  points="12.336,14.031 12.559,13.519 12.015,13.647 "/>
</g>
</svg>